{
  "project_info": {
    "project_number": "847403972009",
    "firebase_url": "https://mapproject-39c79.firebaseio.com",
    "project_id": "mapproject-39c79",
    "storage_bucket": "mapproject-39c79.appspot.com"
  },
  "client": [
    {
      "client_info": {
        "mobilesdk_app_id": "1:847403972009:android:e614228807427f00df00b8",
        "android_client_info": {
          "package_name": "com.example.mymap"
        }
      },
      "oauth_client": [
        {
          "client_id": "847403972009-bh0rot1ig3rpr35g48jrrjb1f899alnv.apps.googleusercontent.com",
          "client_type": 1,
          "android_info": {
            "package_name": "com.example.mymap",
            "certificate_hash": "716ae8bcc76c3927e22144a7031f517974721de3"
          }
        },
        {
          "client_id": "847403972009-ncrh5vf4head94g9l0eq1pic2rfb4861.apps.googleusercontent.com",
          "client_type": 3
        }
      ],
      "api_key": [
        {
          "current_key": "AIzaSyAZ_4VCIf8tUWhS3AgXwZjcGO5P32g-I5M"
        }
      ],
      "services": {
        "appinvite_service": {
          "other_platform_oauth_client": [
            {
              "client_id": "847403972009-ncrh5vf4head94g9l0eq1pic2rfb4861.apps.googleusercontent.com",
              "client_type": 3
            }
          ]
        }
      }
    }
  ],
  "configuration_version": "1"
}